[{
		"name": "Sherman",
		"region": 1,
		"fips": 48421,
		"remaining": 5,
		"urgency": 0,
		"target": 5
	}, {
		"name": "Hansford",
		"region": 1,
		"fips": 48195,
		"remaining": 89,
		"urgency": 0,
		"target": 89
	}, {
		"name": "Dallam",
		"region": 1,
		"fips": 48111,
		"remaining": 34,
		"urgency": 0,
		"target": 34
	}, {
		"name": "Ochiltree",
		"region": 1,
		"fips": 48357,
		"remaining": 31,
		"urgency": 0,
		"target": 32
	}, {
		"name": "Lipscomb",
		"region": 1,
		"fips": 48295,
		"remaining": 19,
		"urgency": 0,
		"target": 22
	}, {
		"name": "Roberts",
		"region": 1,
		"fips": 48393,
		"remaining": 8,
		"urgency": 0,
		"target": 10
	}, {
		"name": "Hemphill",
		"region": 1,
		"fips": 48211,
		"remaining": 81,
		"urgency": 0,
		"target": 82
	}, {
		"name": "Hutchinson",
		"region": 1,
		"fips": 48233,
		"remaining": 98,
		"urgency": 0,
		"target": 99
	}, {
		"name": "Hartley",
		"region": 1,
		"fips": 48205,
		"remaining": 15,
		"urgency": 0,
		"target": 15
	}, {
		"name": "Moore",
		"region": 1,
		"fips": 48341,
		"remaining": 11,
		"urgency": 0,
		"target": 11
	}, {
		"name": "Oldham",
		"region": 1,
		"fips": 48359,
		"remaining": 4,
		"urgency": 0,
		"target": 4
	}, {
		"name": "Carson",
		"region": 1,
		"fips": 48065,
		"remaining": 52,
		"urgency": 0,
		"target": 53
	}, {
		"name": "Gray",
		"region": 1,
		"fips": 48179,
		"remaining": 87,
		"urgency": 0,
		"target": 91
	}, {
		"name": "Wheeler",
		"region": 1,
		"fips": 48483,
		"remaining": 15,
		"urgency": 0,
		"target": 15
	}, {
		"name": "Potter",
		"region": 1,
		"fips": 48375,
		"remaining": 14,
		"urgency": 0.4,
		"target": 15
	}, {
		"name": "Deaf Smith",
		"region": 1,
		"fips": 48117,
		"remaining": 19,
		"urgency": 0.4,
		"target": 19
	}, {
		"name": "Donley",
		"region": 1,
		"fips": 48129,
		"remaining": 53,
		"urgency": 0,
		"target": 55
	}, {
		"name": "Collingsworth",
		"region": 1,
		"fips": 48087,
		"remaining": 32,
		"urgency": 0,
		"target": 33
	}, {
		"name": "Randall",
		"region": 1,
		"fips": 48381,
		"remaining": 99,
		"urgency": 0.4,
		"target": 10
	}, {
		"name": "Armstrong",
		"region": 1,
		"fips": 48011,
		"remaining": 16,
		"urgency": 0,
		"target": 17
	}, {
		"name": "Swisher",
		"region": 1,
		"fips": 48437,
		"remaining": 11,
		"urgency": 0,
		"target": 11
	}, {
		"name": "Briscoe",
		"region": 1,
		"fips": 48045,
		"remaining": 38,
		"urgency": 0,
		"target": 41
	}, {
		"name": "Castro",
		"region": 1,
		"fips": 48069,
		"remaining": 80,
		"urgency": 0,
		"target": 81
	}, {
		"name": "Hall",
		"region": 1,
		"fips": 48191,
		"remaining": 41,
		"urgency": 0,
		"target": 41
	}, {
		"name": "Childress",
		"region": 1,
		"fips": 48075,
		"remaining": 36,
		"urgency": 0,
		"target": 42
	}, {
		"name": "Parmer",
		"region": 1,
		"fips": 48369,
		"remaining": 40,
		"urgency": 0,
		"target": 41
	}, {
		"name": "Hardeman",
		"region": 2,
		"fips": 48197,
		"remaining": 48,
		"urgency": 0,
		"target": 51
	}, {
		"name": "Wilbarger",
		"region": 2,
		"fips": 48487,
		"remaining": 15,
		"urgency": 0.05,
		"target": 16
	}, {
		"name": "Motley",
		"region": 1,
		"fips": 48345,
		"remaining": 11,
		"urgency": 0,
		"target": 11
	}, {
		"name": "Cottle",
		"region": 2,
		"fips": 48101,
		"remaining": 32,
		"urgency": 0,
		"target": 33
	}, {
		"name": "Floyd",
		"region": 1,
		"fips": 48153,
		"remaining": 57,
		"urgency": 0,
		"target": 57
	}, {
		"name": "Hale",
		"region": 1,
		"fips": 48189,
		"remaining": 31,
		"urgency": 0,
		"target": 32
	}, {
		"name": "Lamb",
		"region": 1,
		"fips": 48279,
		"remaining": 89,
		"urgency": 0,
		"target": 90
	}, {
		"name": "Bailey",
		"region": 1,
		"fips": 48017,
		"remaining": 69,
		"urgency": 0,
		"target": 69
	}, {
		"name": "Foard",
		"region": 2,
		"fips": 48155,
		"remaining": 18,
		"urgency": 0,
		"target": 18
	}, {
		"name": "Wichita",
		"region": 2,
		"fips": 48485,
		"remaining": 18,
		"urgency": 0.05,
		"target": 19
	}, {
		"name": "Clay",
		"region": 2,
		"fips": 48077,
		"remaining": 78,
		"urgency": 0,
		"target": 80
	}, {
		"name": "Montague",
		"region": 2,
		"fips": 48337,
		"remaining": 97,
		"urgency": 0,
		"target": 10
	}, {
		"name": "Red River",
		"region": 4,
		"fips": 48387,
		"remaining": 18,
		"urgency": 0,
		"target": 18
	}, {
		"name": "Grayson",
		"region": 3,
		"fips": 48181,
		"remaining": 13,
		"urgency": 0.05,
		"target": 14
	}, {
		"name": "Cooke",
		"region": 3,
		"fips": 48097,
		"remaining": 25,
		"urgency": 0,
		"target": 29
	}, {
		"name": "Lamar",
		"region": 4,
		"fips": 48277,
		"remaining": 59,
		"urgency": 0,
		"target": 61
	}, {
		"name": "Fannin",
		"region": 3,
		"fips": 48147,
		"remaining": 25,
		"urgency": 0,
		"target": 25
	}, {
		"name": "King",
		"region": 1,
		"fips": 48269,
		"remaining": 0,
		"urgency": 0,
		"target": 0
	}, {
		"name": "Knox",
		"region": 2,
		"fips": 48275,
		"remaining": 25,
		"urgency": 0,
		"target": 25
	}, {
		"name": "Archer",
		"region": 2,
		"fips": 48009,
		"remaining": 32,
		"urgency": 0,
		"target": 33
	}, {
		"name": "Dickens",
		"region": 1,
		"fips": 48125,
		"remaining": 14,
		"urgency": 0,
		"target": 14
	}, {
		"name": "Crosby",
		"region": 1,
		"fips": 48107,
		"remaining": 82,
		"urgency": 0.05,
		"target": 82
	}, {
		"name": "Baylor",
		"region": 2,
		"fips": 48023,
		"remaining": 46,
		"urgency": 0,
		"target": 47
	}, {
		"name": "Lubbock",
		"region": 1,
		"fips": 48303,
		"remaining": 40,
		"urgency": 0.05,
		"target": 48
	}, {
		"name": "Cochran",
		"region": 1,
		"fips": 48079,
		"remaining": 12,
		"urgency": 0,
		"target": 12
	}, {
		"name": "Hockley",
		"region": 1,
		"fips": 48219,
		"remaining": 16,
		"urgency": 0,
		"target": 16
	}, {
		"name": "Bowie",
		"region": 4,
		"fips": 48037,
		"remaining": 16,
		"urgency": 0.4,
		"target": 17
	}, {
		"name": "Delta",
		"region": 4,
		"fips": 48119,
		"remaining": 28,
		"urgency": 0,
		"target": 29
	}, {
		"name": "Jack",
		"region": 2,
		"fips": 48237,
		"remaining": 39,
		"urgency": 0,
		"target": 40
	}, {
		"name": "Wise",
		"region": 3,
		"fips": 48497,
		"remaining": 36,
		"urgency": 0,
		"target": 38
	}, {
		"name": "Denton",
		"region": 3,
		"fips": 48121,
		"remaining": 15,
		"urgency": 0.6,
		"target": 17
	}, {
		"name": "Hunt",
		"region": 3,
		"fips": 48231,
		"remaining": 85,
		"urgency": 0.05,
		"target": 86
	}, {
		"name": "Collin",
		"region": 3,
		"fips": 48085,
		"remaining": 22,
		"urgency": 0.6,
		"target": 23
	}, {
		"name": "Kent",
		"region": 2,
		"fips": 48263,
		"remaining": 56,
		"urgency": 0,
		"target": 57
	}, {
		"name": "Stonewall",
		"region": 2,
		"fips": 48433,
		"remaining": 16,
		"urgency": 0,
		"target": 16
	}, {
		"name": "Titus",
		"region": 4,
		"fips": 48449,
		"remaining": 44,
		"urgency": 0.05,
		"target": 44
	}, {
		"name": "Garza",
		"region": 1,
		"fips": 48169,
		"remaining": 40,
		"urgency": 0,
		"target": 40
	}, {
		"name": "Throckmorton",
		"region": 2,
		"fips": 48447,
		"remaining": 65,
		"urgency": 0,
		"target": 65
	}, {
		"name": "Young",
		"region": 2,
		"fips": 48503,
		"remaining": 10,
		"urgency": 0,
		"target": 10
	}, {
		"name": "Haskell",
		"region": 2,
		"fips": 48207,
		"remaining": 98,
		"urgency": 0,
		"target": 10
	}, {
		"name": "Lynn",
		"region": 1,
		"fips": 48305,
		"remaining": 20,
		"urgency": 0,
		"target": 21
	}, {
		"name": "Yoakum",
		"region": 1,
		"fips": 48501,
		"remaining": 36,
		"urgency": 0,
		"target": 37
	}, {
		"name": "Terry",
		"region": 1,
		"fips": 48445,
		"remaining": 13,
		"urgency": 0.05,
		"target": 13
	}, {
		"name": "Franklin",
		"region": 4,
		"fips": 48159,
		"remaining": 62,
		"urgency": 0,
		"target": 62
	}, {
		"name": "Hopkins",
		"region": 4,
		"fips": 48223,
		"remaining": 37,
		"urgency": 0,
		"target": 37
	}, {
		"name": "Morris",
		"region": 4,
		"fips": 48343,
		"remaining": 22,
		"urgency": 0.05,
		"target": 22
	}, {
		"name": "Cass",
		"region": 4,
		"fips": 48067,
		"remaining": 41,
		"urgency": 0.05,
		"target": 42
	}, {
		"name": "Camp",
		"region": 4,
		"fips": 48063,
		"remaining": 21,
		"urgency": 0.4,
		"target": 21
	}, {
		"name": "Wood",
		"region": 4,
		"fips": 48499,
		"remaining": 27,
		"urgency": 0,
		"target": 28
	}, {
		"name": "Palo Pinto",
		"region": 3,
		"fips": 48363,
		"remaining": 20,
		"urgency": 0,
		"target": 20
	}, {
		"name": "Parker",
		"region": 3,
		"fips": 48367,
		"remaining": 10,
		"urgency": 0.05,
		"target": 11
	}, {
		"name": "Tarrant",
		"region": 3,
		"fips": 48439,
		"remaining": 47,
		"urgency": 0.4,
		"target": 51
	}, {
		"name": "Dallas",
		"region": 3,
		"fips": 48113,
		"remaining": 56,
		"urgency": 0.4,
		"target": 67
	}, {
		"name": "Rockwall",
		"region": 3,
		"fips": 48397,
		"remaining": 13,
		"urgency": 0.6,
		"target": 14
	}, {
		"name": "Rains",
		"region": 4,
		"fips": 48379,
		"remaining": 86,
		"urgency": 0,
		"target": 88
	}, {
		"name": "Scurry",
		"region": 2,
		"fips": 48415,
		"remaining": 10,
		"urgency": 0,
		"target": 10
	}, {
		"name": "Fisher",
		"region": 2,
		"fips": 48151,
		"remaining": 97,
		"urgency": 0.05,
		"target": 99
	}, {
		"name": "Borden",
		"region": 9,
		"fips": 48033,
		"remaining": 13,
		"urgency": 0,
		"target": 14
	}, {
		"name": "Dawson",
		"region": 9,
		"fips": 48115,
		"remaining": 18,
		"urgency": 0.05,
		"target": 18
	}, {
		"name": "Gaines",
		"region": 9,
		"fips": 48165,
		"remaining": 49,
		"urgency": 0,
		"target": 57
	}, {
		"name": "Jones",
		"region": 2,
		"fips": 48253,
		"remaining": 16,
		"urgency": 0,
		"target": 16
	}, {
		"name": "Shackelford",
		"region": 2,
		"fips": 48417,
		"remaining": 10,
		"urgency": 0,
		"target": 10
	}, {
		"name": "Stephens",
		"region": 2,
		"fips": 48429,
		"remaining": 72,
		"urgency": 0,
		"target": 72
	}, {
		"name": "Upshur",
		"region": 4,
		"fips": 48459,
		"remaining": 36,
		"urgency": 0,
		"target": 36
	}, {
		"name": "Marion",
		"region": 4,
		"fips": 48315,
		"remaining": 23,
		"urgency": 0.05,
		"target": 23
	}, {
		"name": "Kaufman",
		"region": 3,
		"fips": 48257,
		"remaining": 16,
		"urgency": 0.4,
		"target": 16
	}, {
		"name": "Van Zandt",
		"region": 4,
		"fips": 48467,
		"remaining": 33,
		"urgency": 0,
		"target": 33
	}, {
		"name": "Harrison",
		"region": 4,
		"fips": 48203,
		"remaining": 11,
		"urgency": 0.4,
		"target": 11
	}, {
		"name": "Smith",
		"region": 4,
		"fips": 48423,
		"remaining": 29,
		"urgency": 0.4,
		"target": 35
	}, {
		"name": "Gregg",
		"region": 4,
		"fips": 48183,
		"remaining": 17,
		"urgency": 0.6,
		"target": 18
	}, {
		"name": "Hood",
		"region": 3,
		"fips": 48221,
		"remaining": 53,
		"urgency": 0.05,
		"target": 55
	}, {
		"name": "Johnson",
		"region": 3,
		"fips": 48251,
		"remaining": 15,
		"urgency": 0.4,
		"target": 15
	}, {
		"name": "Ellis",
		"region": 3,
		"fips": 48139,
		"remaining": 22,
		"urgency": 0.4,
		"target": 23
	}, {
		"name": "Howard",
		"region": 9,
		"fips": 48227,
		"remaining": 31,
		"urgency": 0,
		"target": 31
	}, {
		"name": "Mitchell",
		"region": 2,
		"fips": 48335,
		"remaining": 91,
		"urgency": 0,
		"target": 92
	}, {
		"name": "Nolan",
		"region": 2,
		"fips": 48353,
		"remaining": 20,
		"urgency": 0.05,
		"target": 21
	}, {
		"name": "Martin",
		"region": 9,
		"fips": 48317,
		"remaining": 21,
		"urgency": 0,
		"target": 21
	}, {
		"name": "Andrews",
		"region": 9,
		"fips": 48003,
		"remaining": 15,
		"urgency": 0.05,
		"target": 15
	}, {
		"name": "Taylor",
		"region": 2,
		"fips": 48441,
		"remaining": 15,
		"urgency": 0.4,
		"target": 16
	}, {
		"name": "Eastland",
		"region": 2,
		"fips": 48133,
		"remaining": 80,
		"urgency": 0,
		"target": 82
	}, {
		"name": "Erath",
		"region": 3,
		"fips": 48143,
		"remaining": 31,
		"urgency": 0,
		"target": 32
	}, {
		"name": "Callahan",
		"region": 2,
		"fips": 48059,
		"remaining": 65,
		"urgency": 0,
		"target": 67
	}, {
		"name": "Rusk",
		"region": 4,
		"fips": 48401,
		"remaining": 44,
		"urgency": 0.05,
		"target": 46
	}, {
		"name": "Panola",
		"region": 4,
		"fips": 48365,
		"remaining": 26,
		"urgency": 0,
		"target": 26
	}, {
		"name": "Henderson",
		"region": 4,
		"fips": 48213,
		"remaining": 71,
		"urgency": 0.05,
		"target": 73
	}, {
		"name": "Navarro",
		"region": 3,
		"fips": 48349,
		"remaining": 69,
		"urgency": 0.05,
		"target": 69
	}, {
		"name": "Somervell",
		"region": 3,
		"fips": 48425,
		"remaining": 40,
		"urgency": 0,
		"target": 41
	}, {
		"name": "Hill",
		"region": 7,
		"fips": 48217,
		"remaining": 29,
		"urgency": 0,
		"target": 29
	}, {
		"name": "Comanche",
		"region": 2,
		"fips": 48093,
		"remaining": 11,
		"urgency": 0,
		"target": 11
	}, {
		"name": "Bosque",
		"region": 7,
		"fips": 48035,
		"remaining": 13,
		"urgency": 0,
		"target": 13
	}, {
		"name": "Cherokee",
		"region": 4,
		"fips": 48073,
		"remaining": 46,
		"urgency": 0,
		"target": 47
	}, {
		"name": "Sterling",
		"region": 9,
		"fips": 48431,
		"remaining": 0,
		"urgency": 0,
		"target": 0
	}, {
		"name": "Glasscock",
		"region": 9,
		"fips": 48173,
		"remaining": 10,
		"urgency": 0,
		"target": 10
	}, {
		"name": "Midland",
		"region": 9,
		"fips": 48329,
		"remaining": 16,
		"urgency": 0.05,
		"target": 17
	}, {
		"name": "Ector",
		"region": 9,
		"fips": 48135,
		"remaining": 20,
		"urgency": 0.4,
		"target": 21
	}, {
		"name": "Winkler",
		"region": 9,
		"fips": 48495,
		"remaining": 53,
		"urgency": 0,
		"target": 53
	}, {
		"name": "Coke",
		"region": 9,
		"fips": 48081,
		"remaining": 12,
		"urgency": 0,
		"target": 13
	}, {
		"name": "Anderson",
		"region": 4,
		"fips": 48001,
		"remaining": 43,
		"urgency": 0.05,
		"target": 44
	}, {
		"name": "Coleman",
		"region": 2,
		"fips": 48083,
		"remaining": 50,
		"urgency": 0,
		"target": 51
	}, {
		"name": "Runnels",
		"region": 2,
		"fips": 48399,
		"remaining": 66,
		"urgency": 0,
		"target": 67
	}, {
		"name": "Brown",
		"region": 2,
		"fips": 48049,
		"remaining": 20,
		"urgency": 0,
		"target": 20
	}, {
		"name": "Hamilton",
		"region": 7,
		"fips": 48193,
		"remaining": 45,
		"urgency": 0,
		"target": 48
	}, {
		"name": "Freestone",
		"region": 7,
		"fips": 48161,
		"remaining": 17,
		"urgency": 0,
		"target": 17
	}, {
		"name": "Culberson",
		"region": 10,
		"fips": 48109,
		"remaining": 8,
		"urgency": 0,
		"target": 8
	}, {
		"name": "Hudspeth",
		"region": 10,
		"fips": 48229,
		"remaining": 74,
		"urgency": 0,
		"target": 77
	}, {
		"name": "El Paso",
		"region": 10,
		"fips": 48141,
		"remaining": 24,
		"urgency": 0.8,
		"target": 28
	}, {
		"name": "Loving",
		"region": 9,
		"fips": 48301,
		"remaining": 0,
		"urgency": 0,
		"target": 0
	}, {
		"name": "Reeves",
		"region": 9,
		"fips": 48389,
		"remaining": 41,
		"urgency": 0.05,
		"target": 42
	}, {
		"name": "Shelby",
		"region": 5,
		"fips": 48419,
		"remaining": 25,
		"urgency": 0,
		"target": 26
	}, {
		"name": "McLennan",
		"region": 7,
		"fips": 48309,
		"remaining": 45,
		"urgency": 0.4,
		"target": 47
	}, {
		"name": "Nacogdoches",
		"region": 5,
		"fips": 48347,
		"remaining": 79,
		"urgency": 0.05,
		"target": 82
	}, {
		"name": "Limestone",
		"region": 7,
		"fips": 48293,
		"remaining": 28,
		"urgency": 0,
		"target": 28
	}, {
		"name": "Mills",
		"region": 7,
		"fips": 48333,
		"remaining": 29,
		"urgency": 0,
		"target": 30
	}, {
		"name": "Coryell",
		"region": 7,
		"fips": 48099,
		"remaining": 94,
		"urgency": 0.4,
		"target": 95
	}, {
		"name": "Tom Green",
		"region": 9,
		"fips": 48451,
		"remaining": 15,
		"urgency": 0.4,
		"target": 15
	}, {
		"name": "Leon",
		"region": 7,
		"fips": 48289,
		"remaining": 57,
		"urgency": 0,
		"target": 58
	}, {
		"name": "Upton",
		"region": 9,
		"fips": 48461,
		"remaining": 6,
		"urgency": 0,
		"target": 6
	}, {
		"name": "Crane",
		"region": 9,
		"fips": 48103,
		"remaining": 46,
		"urgency": 0,
		"target": 47
	}, {
		"name": "San Augustine",
		"region": 5,
		"fips": 48405,
		"remaining": 15,
		"urgency": 0,
		"target": 16
	}, {
		"name": "Reagan",
		"region": 9,
		"fips": 48383,
		"remaining": 12,
		"urgency": 0,
		"target": 12
	}, {
		"name": "Ward",
		"region": 9,
		"fips": 48475,
		"remaining": 15,
		"urgency": 0.05,
		"target": 16
	}, {
		"name": "Sabine",
		"region": 5,
		"fips": 48403,
		"remaining": 88,
		"urgency": 0,
		"target": 88
	}, {
		"name": "Houston",
		"region": 5,
		"fips": 48225,
		"remaining": 24,
		"urgency": 0,
		"target": 24
	}, {
		"name": "Concho",
		"region": 9,
		"fips": 48095,
		"remaining": 38,
		"urgency": 0,
		"target": 38
	}, {
		"name": "Irion",
		"region": 9,
		"fips": 48235,
		"remaining": 31,
		"urgency": 0,
		"target": 31
	}, {
		"name": "Angelina",
		"region": 5,
		"fips": 48005,
		"remaining": 12,
		"urgency": 0.05,
		"target": 13
	}, {
		"name": "Falls",
		"region": 7,
		"fips": 48145,
		"remaining": 30,
		"urgency": 0.05,
		"target": 30
	}, {
		"name": "McCulloch",
		"region": 9,
		"fips": 48307,
		"remaining": 60,
		"urgency": 0,
		"target": 60
	}, {
		"name": "San Saba",
		"region": 7,
		"fips": 48411,
		"remaining": 16,
		"urgency": 0,
		"target": 16
	}, {
		"name": "Lampasas",
		"region": 7,
		"fips": 48281,
		"remaining": 14,
		"urgency": 0,
		"target": 14
	}, {
		"name": "Trinity",
		"region": 5,
		"fips": 48455,
		"remaining": 15,
		"urgency": 0,
		"target": 15
	}, {
		"name": "Pecos",
		"region": 9,
		"fips": 48371,
		"remaining": 32,
		"urgency": 0.05,
		"target": 35
	}, {
		"name": "Robertson",
		"region": 7,
		"fips": 48395,
		"remaining": 35,
		"urgency": 0.05,
		"target": 35
	}, {
		"name": "Bell",
		"region": 7,
		"fips": 48027,
		"remaining": 69,
		"urgency": 0.8,
		"target": 72
	}, {
		"name": "Newton",
		"region": 5,
		"fips": 48351,
		"remaining": 19,
		"urgency": 0,
		"target": 19
	}, {
		"name": "Jasper",
		"region": 5,
		"fips": 48241,
		"remaining": 38,
		"urgency": 0,
		"target": 39
	}, {
		"name": "Polk",
		"region": 5,
		"fips": 48373,
		"remaining": 42,
		"urgency": 0.05,
		"target": 42
	}, {
		"name": "Milam",
		"region": 7,
		"fips": 48331,
		"remaining": 33,
		"urgency": 0.05,
		"target": 33
	}, {
		"name": "Jeff Davis",
		"region": 10,
		"fips": 48243,
		"remaining": 17,
		"urgency": 0,
		"target": 17
	}, {
		"name": "Madison",
		"region": 7,
		"fips": 48313,
		"remaining": 12,
		"urgency": 0.05,
		"target": 12
	}, {
		"name": "Menard",
		"region": 9,
		"fips": 48327,
		"remaining": 5,
		"urgency": 0,
		"target": 6
	}, {
		"name": "Schleicher",
		"region": 9,
		"fips": 48413,
		"remaining": 13,
		"urgency": 0,
		"target": 13
	}, {
		"name": "Crockett",
		"region": 9,
		"fips": 48105,
		"remaining": 2,
		"urgency": 0,
		"target": 2
	}, {
		"name": "Tyler",
		"region": 5,
		"fips": 48457,
		"remaining": 16,
		"urgency": 0,
		"target": 16
	}, {
		"name": "Walker",
		"region": 6,
		"fips": 48471,
		"remaining": 67,
		"urgency": 0.4,
		"target": 68
	}, {
		"name": "Burnet",
		"region": 7,
		"fips": 48053,
		"remaining": 43,
		"urgency": 0.05,
		"target": 46
	}, {
		"name": "Brazos",
		"region": 7,
		"fips": 48041,
		"remaining": 31,
		"urgency": 0.4,
		"target": 35
	}, {
		"name": "Mason",
		"region": 9,
		"fips": 48319,
		"remaining": 43,
		"urgency": 0,
		"target": 43
	}, {
		"name": "Llano",
		"region": 7,
		"fips": 48299,
		"remaining": 17,
		"urgency": 0.05,
		"target": 18
	}, {
		"name": "Williamson",
		"region": 7,
		"fips": 48491,
		"remaining": 11,
		"urgency": 0.8,
		"target": 12
	}, {
		"name": "San Jacinto",
		"region": 5,
		"fips": 48407,
		"remaining": 31,
		"urgency": 0.05,
		"target": 32
	}, {
		"name": "Grimes",
		"region": 7,
		"fips": 48185,
		"remaining": 31,
		"urgency": 0.05,
		"target": 31
	}, {
		"name": "Burleson",
		"region": 7,
		"fips": 48051,
		"remaining": 17,
		"urgency": 0,
		"target": 18
	}, {
		"name": "Kimble",
		"region": 9,
		"fips": 48267,
		"remaining": 13,
		"urgency": 0,
		"target": 14
	}, {
		"name": "Sutton",
		"region": 9,
		"fips": 48435,
		"remaining": 38,
		"urgency": 0,
		"target": 39
	}, {
		"name": "Brewster",
		"region": 10,
		"fips": 48043,
		"remaining": 25,
		"urgency": 0.05,
		"target": 25
	}, {
		"name": "Terrell",
		"region": 9,
		"fips": 48443,
		"remaining": 3,
		"urgency": 0,
		"target": 4
	}, {
		"name": "Presidio",
		"region": 10,
		"fips": 48377,
		"remaining": 37,
		"urgency": 0,
		"target": 38
	}, {
		"name": "Montgomery",
		"region": 6,
		"fips": 48339,
		"remaining": 58,
		"urgency": 0.4,
		"target": 63
	}, {
		"name": "Travis",
		"region": 7,
		"fips": 48453,
		"remaining": 27,
		"urgency": 0.8,
		"target": 36
	}, {
		"name": "Lee",
		"region": 7,
		"fips": 48287,
		"remaining": 20,
		"urgency": 0,
		"target": 22
	}, {
		"name": "Hardin",
		"region": 5,
		"fips": 48199,
		"remaining": 55,
		"urgency": 0.05,
		"target": 55
	}, {
		"name": "Gillespie",
		"region": 8,
		"fips": 48171,
		"remaining": 20,
		"urgency": 0,
		"target": 20
	}, {
		"name": "Blanco",
		"region": 7,
		"fips": 48031,
		"remaining": 92,
		"urgency": 0,
		"target": 94
	}, {
		"name": "Liberty",
		"region": 6,
		"fips": 48291,
		"remaining": 58,
		"urgency": 0,
		"target": 63
	}, {
		"name": "Bastrop",
		"region": 7,
		"fips": 48021,
		"remaining": 17,
		"urgency": 0.6,
		"target": 18
	}, {
		"name": "Washington",
		"region": 7,
		"fips": 48477,
		"remaining": 46,
		"urgency": 0.05,
		"target": 48
	}, {
		"name": "Hays",
		"region": 7,
		"fips": 48209,
		"remaining": 51,
		"urgency": 0.6,
		"target": 55
	}, {
		"name": "Val Verde",
		"region": 8,
		"fips": 48465,
		"remaining": 15,
		"urgency": 0.6,
		"target": 15
	}, {
		"name": "Edwards",
		"region": 8,
		"fips": 48137,
		"remaining": 10,
		"urgency": 0,
		"target": 11
	}, {
		"name": "Kerr",
		"region": 8,
		"fips": 48265,
		"remaining": 46,
		"urgency": 0.05,
		"target": 48
	}, {
		"name": "Orange",
		"region": 5,
		"fips": 48361,
		"remaining": 11,
		"urgency": 0.05,
		"target": 11
	}, {
		"name": "Waller",
		"region": 6,
		"fips": 48473,
		"remaining": 63,
		"urgency": 0.05,
		"target": 64
	}, {
		"name": "Jefferson",
		"region": 5,
		"fips": 48245,
		"remaining": 72,
		"urgency": 0.4,
		"target": 74
	}, {
		"name": "Harris",
		"region": 6,
		"fips": 48201,
		"remaining": 109,
		"urgency": 0.6,
		"target": 11
	}, {
		"name": "Fayette",
		"region": 7,
		"fips": 48149,
		"remaining": 28,
		"urgency": 0,
		"target": 28
	}, {
		"name": "Kendall",
		"region": 8,
		"fips": 48259,
		"remaining": 44,
		"urgency": 0.4,
		"target": 54
	}, {
		"name": "Austin",
		"region": 6,
		"fips": 48015,
		"remaining": 21,
		"urgency": 0,
		"target": 22
	}, {
		"name": "Real",
		"region": 8,
		"fips": 48385,
		"remaining": 16,
		"urgency": 0,
		"target": 17
	}, {
		"name": "Caldwell",
		"region": 7,
		"fips": 48055,
		"remaining": 92,
		"urgency": 0.05,
		"target": 96
	}, {
		"name": "Comal",
		"region": 8,
		"fips": 48091,
		"remaining": 19,
		"urgency": 0.4,
		"target": 23
	}, {
		"name": "Colorado",
		"region": 6,
		"fips": 48089,
		"remaining": 30,
		"urgency": 0.05,
		"target": 30
	}, {
		"name": "Bandera",
		"region": 8,
		"fips": 48019,
		"remaining": 13,
		"urgency": 0,
		"target": 14
	}, {
		"name": "Chambers",
		"region": 6,
		"fips": 48071,
		"remaining": 31,
		"urgency": 0.05,
		"target": 32
	}, {
		"name": "Guadalupe",
		"region": 8,
		"fips": 48187,
		"remaining": 28,
		"urgency": 0.4,
		"target": 29
	}, {
		"name": "Fort Bend",
		"region": 6,
		"fips": 48157,
		"remaining": 24,
		"urgency": 0.8,
		"target": 25
	}, {
		"name": "Gonzales",
		"region": 8,
		"fips": 48177,
		"remaining": 23,
		"urgency": 0,
		"target": 23
	}, {
		"name": "Bexar",
		"region": 8,
		"fips": 48029,
		"remaining": 53,
		"urgency": 0.6,
		"target": 59
	}, {
		"name": "Medina",
		"region": 8,
		"fips": 48325,
		"remaining": 64,
		"urgency": 0.4,
		"target": 65
	}, {
		"name": "Wharton",
		"region": 6,
		"fips": 48481,
		"remaining": 60,
		"urgency": 0.4,
		"target": 61
	}, {
		"name": "Lavaca",
		"region": 8,
		"fips": 48285,
		"remaining": 23,
		"urgency": 0,
		"target": 24
	}, {
		"name": "Uvalde",
		"region": 8,
		"fips": 48463,
		"remaining": 71,
		"urgency": 0.4,
		"target": 72
	}, {
		"name": "Kinney",
		"region": 8,
		"fips": 48271,
		"remaining": 11,
		"urgency": 0,
		"target": 11
	}, {
		"name": "Galveston",
		"region": 6,
		"fips": 48167,
		"remaining": 74,
		"urgency": 0.6,
		"target": 79
	}, {
		"name": "Brazoria",
		"region": 6,
		"fips": 48039,
		"remaining": 62,
		"urgency": 0.6,
		"target": 66
	}, {
		"name": "Wilson",
		"region": 8,
		"fips": 48493,
		"remaining": 75,
		"urgency": 0.4,
		"target": 76
	}, {
		"name": "DeWitt",
		"region": 8,
		"fips": 48123,
		"remaining": 19,
		"urgency": 0,
		"target": 20
	}, {
		"name": "Jackson",
		"region": 8,
		"fips": 48239,
		"remaining": 16,
		"urgency": 0,
		"target": 16
	}, {
		"name": "Atascosa",
		"region": 8,
		"fips": 48013,
		"remaining": 81,
		"urgency": 0.05,
		"target": 82
	}, {
		"name": "Matagorda",
		"region": 6,
		"fips": 48321,
		"remaining": 59,
		"urgency": 0.05,
		"target": 60
	}, {
		"name": "Karnes",
		"region": 8,
		"fips": 48255,
		"remaining": 30,
		"urgency": 0.05,
		"target": 31
	}, {
		"name": "Victoria",
		"region": 8,
		"fips": 48469,
		"remaining": 17,
		"urgency": 0.4,
		"target": 17
	}, {
		"name": "Frio",
		"region": 8,
		"fips": 48163,
		"remaining": 41,
		"urgency": 0.4,
		"target": 41
	}, {
		"name": "Zavala",
		"region": 8,
		"fips": 48507,
		"remaining": 43,
		"urgency": 0.4,
		"target": 43
	}, {
		"name": "Maverick",
		"region": 8,
		"fips": 48323,
		"remaining": 19,
		"urgency": 0.8,
		"target": 20
	}, {
		"name": "Goliad",
		"region": 8,
		"fips": 48175,
		"remaining": 10,
		"urgency": 0,
		"target": 11
	}, {
		"name": "Live Oak",
		"region": 11,
		"fips": 48297,
		"remaining": 92,
		"urgency": 0,
		"target": 94
	}, {
		"name": "Calhoun",
		"region": 8,
		"fips": 48057,
		"remaining": 53,
		"urgency": 0.05,
		"target": 53
	}, {
		"name": "Bee",
		"region": 11,
		"fips": 48025,
		"remaining": 57,
		"urgency": 0.05,
		"target": 59
	}, {
		"name": "La Salle",
		"region": 8,
		"fips": 48283,
		"remaining": 19,
		"urgency": 0.05,
		"target": 19
	}, {
		"name": "McMullen",
		"region": 11,
		"fips": 48311,
		"remaining": 19,
		"urgency": 0,
		"target": 19
	}, {
		"name": "Dimmit",
		"region": 8,
		"fips": 48127,
		"remaining": 33,
		"urgency": 0.4,
		"target": 34
	}, {
		"name": "Refugio",
		"region": 11,
		"fips": 48391,
		"remaining": 14,
		"urgency": 0,
		"target": 14
	}, {
		"name": "Aransas",
		"region": 11,
		"fips": 48007,
		"remaining": 27,
		"urgency": 0.4,
		"target": 27
	}, {
		"name": "Webb",
		"region": 11,
		"fips": 48479,
		"remaining": 89,
		"urgency": 0.8,
		"target": 93
	}, {
		"name": "San Patricio",
		"region": 11,
		"fips": 48409,
		"remaining": 13,
		"urgency": 0.4,
		"target": 13
	}, {
		"name": "Duval",
		"region": 11,
		"fips": 48131,
		"remaining": 26,
		"urgency": 0.05,
		"target": 27
	}, {
		"name": "Jim Wells",
		"region": 11,
		"fips": 48249,
		"remaining": 14,
		"urgency": 0.4,
		"target": 14
	}, {
		"name": "Nueces",
		"region": 11,
		"fips": 48355,
		"remaining": 94,
		"urgency": 0.4,
		"target": 10
	}, {
		"name": "Kleberg",
		"region": 11,
		"fips": 48273,
		"remaining": 88,
		"urgency": 0.4,
		"target": 91
	}, {
		"name": "Jim Hogg",
		"region": 11,
		"fips": 48247,
		"remaining": 27,
		"urgency": 0.4,
		"target": 27
	}, {
		"name": "Zapata",
		"region": 11,
		"fips": 48505,
		"remaining": 45,
		"urgency": 0.4,
		"target": 47
	}, {
		"name": "Kenedy",
		"region": 11,
		"fips": 48261,
		"remaining": 0,
		"urgency": 0,
		"target": 0
	}, {
		"name": "Brooks",
		"region": 11,
		"fips": 48047,
		"remaining": 38,
		"urgency": 0.4,
		"target": 38
	}, {
		"name": "Starr",
		"region": 11,
		"fips": 48427,
		"remaining": 19,
		"urgency": 1,
		"target": 19
	}, {
		"name": "Hidalgo",
		"region": 11,
		"fips": 48215,
		"remaining": 19,
		"urgency": 0.4,
		"target": 21
	}, {
		"name": "Willacy",
		"region": 11,
		"fips": 48489,
		"remaining": 82,
		"urgency": 0,
		"target": 83
	}, {
		"name": "Cameron",
		"region": 11,
		"fips": 48061,
		"remaining": 12,
		"urgency": 0.8,
		"target": 12
	}]
