<?xml version="1.0" encoding="utf-8"?>
<!-- Generator: Adobe Illustrator 22.1.0, SVG Export Plug-In . SVG Version: 6.00 Build 0)  -->
<svg version="1.1" id="Layer_1" xmlns="http://www.w3.org/2000/svg" xmlns:xlink="http://www.w3.org/1999/xlink" x="0px" y="0px"
	 viewBox="0 0 1102 24" style="enable-background:new 0 0 1102 24;" xml:space="preserve">
<style type="text/css">
	.st0{fill:#DEDEDE;}
</style>
<g>
	<g>
		<polyline class="st0" points="1101,1 1,1 1,3 1101,3 1101,1 		"/>
	</g>
	<g>
		<polyline class="st0" points="1101,11 1,11 1,13 1101,13 1101,11 		"/>
	</g>
	<g>
		<polyline class="st0" points="1101,21 1,21 1,23 1101,23 1101,21 		"/>
	</g>
</g>
</svg>
