<?xml version="1.0" encoding="utf-8"?>
<!-- Generator: Adobe Illustrator 22.1.0, SVG Export Plug-In . SVG Version: 6.00 Build 0)  -->
<svg version="1.1" id="Layer_1" xmlns="http://www.w3.org/2000/svg" xmlns:xlink="http://www.w3.org/1999/xlink" x="0px" y="0px"
	 viewBox="0 0 1406 276" style="enable-background:new 0 0 1406 276;" xml:space="preserve">
<style type="text/css">
	.st0{fill:#CDFF39;}
	.st1{fill:#FFFFFF;}
</style>
<g>
	<g>
		<path class="st0" d="M23,225.1h169.8v24H23v22.7H3v-69.4h20V225.1z"/>
		<path class="st0" d="M87.2,168v-25.2H3v-24h189.8v24h-84.6V168h84.6v24H3v-24H87.2z"/>
		<path class="st0" d="M3,102.3V43.1h20.5v35.2h62.9V47.6h20.5v30.7h65.4V42.6h20.5v59.7H3z"/>
	</g>
	<g>
		<path class="st1" d="M243.2,4.2h76.4l21.1,21.1v118.3l-21.1,21.1H277v107.1h-33.8V4.2z M307,129.5V39.4l-7-7H277v104.3h22.9
			L307,129.5z"/>
		<path class="st1" d="M358.7,271.8V4.2h33.8V243h44.7v28.9H358.7z"/>
		<path class="st1" d="M484.5,202.8l-6.7,69H444L476,4.2h48.6l32.8,267.7h-35.2l-6.7-69H484.5z M500,39l-13,134.9H513L500,39z"/>
		<path class="st1" d="M572.2,4.2h36.6l38.7,185.6V4.2h30.6v267.7h-36.6L602.8,89v182.8h-30.6V4.2z"/>
		<path class="st1" d="M815.2,32.3v239.5h-33.8V32.3h-32.1V4.2h97.9v28.2H815.2z"/>
		<path class="st1" d="M960.6,250.7l-21.1,21.1h-58.8l-21.1-21.1V25.3l21.1-21.1h58.8l21.1,21.1V250.7z M900.4,33l-7,7v195.8l7,7
			h19.4l7-7V40.1l-7-7H900.4z"/>
		<path class="st1" d="M1145.2,271.8l-18.3-225.4l-18.3,225.4h-47.2L1027.2,4.2h35.2l20.1,231.4l23.6-231.4h42.3l23.6,231.4
			L1192,4.2h33.1L1191,271.8H1145.2z"/>
		<path class="st1" d="M1239.9,4.2h33.8v267.7h-33.8V4.2z"/>
		<path class="st1" d="M1297,4.2h36.6l38.7,185.6V4.2h30.6v267.7h-36.6L1327.6,89v182.8H1297V4.2z"/>
	</g>
</g>
</svg>
